%!PS-Adobe-3.0
%%Pages: (atend)
%%Creator: jgraph
%%EndComments

%%BeginProlog
%%EndProlog
%%BeginSetup
%%EndSetup

%%Page: 1 1
%%BeginPageSetup
%%EndPageSetup

215.000000 148.000000 translate
1 setlinecap 1 setlinejoin
0.700 setlinewidth
0.00 setgray

/Jrnd { exch cvi exch cvi dup 3 1 roll idiv mul } def
/JDEdict 8 dict def
JDEdict /mtrx matrix put
/JDE {
  JDEdict begin
  /yrad exch def
  /xrad exch def
  /savematrix mtrx currentmatrix def
  xrad yrad scale
  0 0 1 0 360 arc
  savematrix setmatrix
  end
} def
/JSTR {
  gsave 1 eq { gsave 1 setgray fill grestore } if
    exch neg exch neg translate 
    clip                        
    rotate                      
    4 dict begin
      pathbbox  /&top exch def
                /&right exch def
                /&bottom exch def
                &right sub /&width exch def
      newpath
      currentlinewidth mul round dup               
      &bottom exch Jrnd exch &top             
      4 -1 roll currentlinewidth mul setlinewidth  
      { &right exch moveto &width 0 rlineto stroke } for    
    end
  grestore
  newpath
} bind def
 gsave /Times-Roman findfont 9.000000 scalefont setfont
0.000000 324.000000 translate
0.700000 setlinewidth  gsave newpath 0.000000 0.000000 moveto 216.000000 0.000000 lineto stroke
newpath 0.000000 0.000000 moveto 0.000000 -2.000000 lineto stroke
newpath 9.391304 0.000000 moveto 9.391304 -2.000000 lineto stroke
newpath 18.782608 0.000000 moveto 18.782608 -2.000000 lineto stroke
newpath 28.173912 0.000000 moveto 28.173912 -2.000000 lineto stroke
newpath 37.565216 0.000000 moveto 37.565216 -5.000000 lineto stroke
newpath 46.956520 0.000000 moveto 46.956520 -2.000000 lineto stroke
newpath 56.347824 0.000000 moveto 56.347824 -2.000000 lineto stroke
newpath 65.739128 0.000000 moveto 65.739128 -2.000000 lineto stroke
newpath 75.130432 0.000000 moveto 75.130432 -2.000000 lineto stroke
newpath 84.521736 0.000000 moveto 84.521736 -5.000000 lineto stroke
newpath 93.913040 0.000000 moveto 93.913040 -2.000000 lineto stroke
newpath 103.304344 0.000000 moveto 103.304344 -2.000000 lineto stroke
newpath 112.695648 0.000000 moveto 112.695648 -2.000000 lineto stroke
newpath 122.086952 0.000000 moveto 122.086952 -2.000000 lineto stroke
newpath 131.478256 0.000000 moveto 131.478256 -5.000000 lineto stroke
newpath 140.869568 0.000000 moveto 140.869568 -2.000000 lineto stroke
newpath 150.260864 0.000000 moveto 150.260864 -2.000000 lineto stroke
newpath 159.652161 0.000000 moveto 159.652161 -2.000000 lineto stroke
newpath 169.043472 0.000000 moveto 169.043472 -2.000000 lineto stroke
newpath 178.434784 0.000000 moveto 178.434784 -5.000000 lineto stroke
newpath 187.826080 0.000000 moveto 187.826080 -2.000000 lineto stroke
newpath 197.217377 0.000000 moveto 197.217377 -2.000000 lineto stroke
newpath 206.608688 0.000000 moveto 206.608688 -2.000000 lineto stroke
newpath 216.000000 0.000000 moveto 216.000000 -2.000000 lineto stroke
gsave 37.565216 -8.000000 translate 0.000000 rotate
0 -5.400000 translate (5) dup stringwidth pop 2 div neg 0 moveto
show
grestore
gsave 84.521736 -8.000000 translate 0.000000 rotate
0 -5.400000 translate (10) dup stringwidth pop 2 div neg 0 moveto
show
grestore
gsave 131.478256 -8.000000 translate 0.000000 rotate
0 -5.400000 translate (15) dup stringwidth pop 2 div neg 0 moveto
show
grestore
gsave 178.434784 -8.000000 translate 0.000000 rotate
0 -5.400000 translate (20) dup stringwidth pop 2 div neg 0 moveto
show
grestore
/Times-Bold findfont 10.000000 scalefont setfont
gsave 108.000000 -21.400000 translate 0.000000 rotate
0 -6.000000 translate (OMP #threads) dup stringwidth pop 2 div neg 0 moveto
show
grestore
 grestore 
0.700000 setlinewidth  gsave newpath 0.000000 0.000000 moveto 0.000000 216.000000 lineto stroke
newpath 0.000000 5.538462 moveto -2.000000 5.538462 lineto stroke
newpath 0.000000 33.230770 moveto -5.000000 33.230770 lineto stroke
newpath 0.000000 60.923077 moveto -2.000000 60.923077 lineto stroke
newpath 0.000000 88.615379 moveto -5.000000 88.615379 lineto stroke
newpath 0.000000 116.307693 moveto -2.000000 116.307693 lineto stroke
newpath 0.000000 144.000000 moveto -5.000000 144.000000 lineto stroke
newpath 0.000000 171.692322 moveto -2.000000 171.692322 lineto stroke
newpath 0.000000 199.384613 moveto -5.000000 199.384613 lineto stroke
/Times-Roman findfont 9.000000 scalefont setfont
gsave -8.000000 33.230770 translate 0.000000 rotate
0 -2.700000 translate (0.2) dup stringwidth pop neg 0 moveto
show
grestore
gsave -8.000000 88.615379 translate 0.000000 rotate
0 -2.700000 translate (0.4) dup stringwidth pop neg 0 moveto
show
grestore
gsave -8.000000 144.000000 translate 0.000000 rotate
0 -2.700000 translate (0.6) dup stringwidth pop neg 0 moveto
show
grestore
gsave -8.000000 199.384613 translate 0.000000 rotate
0 -2.700000 translate (0.8) dup stringwidth pop neg 0 moveto
show
grestore
/Times-Bold findfont 10.000000 scalefont setfont
gsave -28.959999 108.000000 translate 90.000000 rotate
0 0.000000 translate (Time ) dup stringwidth pop 2 div neg 0 moveto
show
grestore
 grestore 
/Times-Roman findfont 12.000000 scalefont setfont
gsave 108.000000 -37.400002 translate 0.000000 rotate
0 -7.200000 translate (Average elapsed execution time) dup stringwidth pop 2 div neg 0 moveto
show
grestore
 gsave 
 gsave 0.700000 setlinewidth  [] 0 setdash
0.000000 216.000000 moveto   9.391304 102.461533 lineto
  18.782608 60.923077 lineto
  28.173912 41.538460 lineto
  37.565216 30.461536 lineto
  46.956520 24.923077 lineto
  56.347824 16.615385 lineto
  65.739128 24.923077 lineto
  75.130432 22.153845 lineto
  84.521736 19.384617 lineto
  93.913040 13.846152 lineto
  103.304344 13.846152 lineto
  112.695648 8.307693 lineto
  122.086952 11.076922 lineto
  131.478256 5.538462 lineto
  140.869568 5.538462 lineto
  150.260864 5.538462 lineto
  159.652161 2.769232 lineto
  169.043472 5.538462 lineto
  178.434784 5.538462 lineto
  187.826080 2.769232 lineto
  197.217377 0.000000 lineto
  206.608688 2.769232 lineto
  216.000000 0.000000 lineto
stroke
0.700000 setlinewidth  [] 0 setdash
 grestore 
 grestore 
-0.000000 -324.000000 translate
0.000000 0.000000 translate
0.700000 setlinewidth  gsave newpath 0.000000 0.000000 moveto 216.000000 0.000000 lineto stroke
newpath 0.000000 0.000000 moveto 0.000000 -2.000000 lineto stroke
newpath 9.391304 0.000000 moveto 9.391304 -2.000000 lineto stroke
newpath 18.782608 0.000000 moveto 18.782608 -2.000000 lineto stroke
newpath 28.173912 0.000000 moveto 28.173912 -2.000000 lineto stroke
newpath 37.565216 0.000000 moveto 37.565216 -5.000000 lineto stroke
newpath 46.956520 0.000000 moveto 46.956520 -2.000000 lineto stroke
newpath 56.347824 0.000000 moveto 56.347824 -2.000000 lineto stroke
newpath 65.739128 0.000000 moveto 65.739128 -2.000000 lineto stroke
newpath 75.130432 0.000000 moveto 75.130432 -2.000000 lineto stroke
newpath 84.521736 0.000000 moveto 84.521736 -5.000000 lineto stroke
newpath 93.913040 0.000000 moveto 93.913040 -2.000000 lineto stroke
newpath 103.304344 0.000000 moveto 103.304344 -2.000000 lineto stroke
newpath 112.695648 0.000000 moveto 112.695648 -2.000000 lineto stroke
newpath 122.086952 0.000000 moveto 122.086952 -2.000000 lineto stroke
newpath 131.478256 0.000000 moveto 131.478256 -5.000000 lineto stroke
newpath 140.869568 0.000000 moveto 140.869568 -2.000000 lineto stroke
newpath 150.260864 0.000000 moveto 150.260864 -2.000000 lineto stroke
newpath 159.652161 0.000000 moveto 159.652161 -2.000000 lineto stroke
newpath 169.043472 0.000000 moveto 169.043472 -2.000000 lineto stroke
newpath 178.434784 0.000000 moveto 178.434784 -5.000000 lineto stroke
newpath 187.826080 0.000000 moveto 187.826080 -2.000000 lineto stroke
newpath 197.217377 0.000000 moveto 197.217377 -2.000000 lineto stroke
newpath 206.608688 0.000000 moveto 206.608688 -2.000000 lineto stroke
newpath 216.000000 0.000000 moveto 216.000000 -2.000000 lineto stroke
/Times-Roman findfont 9.000000 scalefont setfont
gsave 37.565216 -8.000000 translate 0.000000 rotate
0 -5.400000 translate (5) dup stringwidth pop 2 div neg 0 moveto
show
grestore
gsave 84.521736 -8.000000 translate 0.000000 rotate
0 -5.400000 translate (10) dup stringwidth pop 2 div neg 0 moveto
show
grestore
gsave 131.478256 -8.000000 translate 0.000000 rotate
0 -5.400000 translate (15) dup stringwidth pop 2 div neg 0 moveto
show
grestore
gsave 178.434784 -8.000000 translate 0.000000 rotate
0 -5.400000 translate (20) dup stringwidth pop 2 div neg 0 moveto
show
grestore
/Times-Bold findfont 10.000000 scalefont setfont
gsave 108.000000 -21.400000 translate 0.000000 rotate
0 -6.000000 translate (OMP #threads) dup stringwidth pop 2 div neg 0 moveto
show
grestore
 grestore 
0.700000 setlinewidth  gsave newpath 0.000000 0.000000 moveto 0.000000 216.000000 lineto stroke
newpath 0.000000 0.228089 moveto -2.000000 0.228089 lineto stroke
newpath 0.000000 19.843716 moveto -5.000000 19.843716 lineto stroke
newpath 0.000000 39.459343 moveto -2.000000 39.459343 lineto stroke
newpath 0.000000 59.074970 moveto -5.000000 59.074970 lineto stroke
newpath 0.000000 78.690605 moveto -2.000000 78.690605 lineto stroke
newpath 0.000000 98.306229 moveto -5.000000 98.306229 lineto stroke
newpath 0.000000 117.921860 moveto -2.000000 117.921860 lineto stroke
newpath 0.000000 137.537491 moveto -5.000000 137.537491 lineto stroke
newpath 0.000000 157.153107 moveto -2.000000 157.153107 lineto stroke
newpath 0.000000 176.768738 moveto -5.000000 176.768738 lineto stroke
newpath 0.000000 196.384369 moveto -2.000000 196.384369 lineto stroke
newpath 0.000000 216.000000 moveto -5.000000 216.000000 lineto stroke
/Times-Roman findfont 9.000000 scalefont setfont
gsave -8.000000 19.843716 translate 0.000000 rotate
0 -2.700000 translate (2) dup stringwidth pop neg 0 moveto
show
grestore
gsave -8.000000 59.074970 translate 0.000000 rotate
0 -2.700000 translate (4) dup stringwidth pop neg 0 moveto
show
grestore
gsave -8.000000 98.306229 translate 0.000000 rotate
0 -2.700000 translate (6) dup stringwidth pop neg 0 moveto
show
grestore
gsave -8.000000 137.537491 translate 0.000000 rotate
0 -2.700000 translate (8) dup stringwidth pop neg 0 moveto
show
grestore
gsave -8.000000 176.768738 translate 0.000000 rotate
0 -2.700000 translate (10) dup stringwidth pop neg 0 moveto
show
grestore
gsave -8.000000 216.000000 translate 0.000000 rotate
0 -2.700000 translate (12) dup stringwidth pop neg 0 moveto
show
grestore
/Times-Bold findfont 10.000000 scalefont setfont
gsave -24.639999 108.000000 translate 90.000000 rotate
0 0.000000 translate (Speed-up) dup stringwidth pop 2 div neg 0 moveto
show
grestore
 grestore 
/Times-Roman findfont 12.000000 scalefont setfont
gsave 108.000000 -37.400002 translate 0.000000 rotate
0 -7.200000 translate (Speed-up wrt sequential time) dup stringwidth pop 2 div neg 0 moveto
show
grestore
 gsave 
 gsave 0.700000 setlinewidth  [4.00000] 0 setdash
0.000000 0.228089 moveto   9.391304 19.843716 lineto
  18.782608 39.459343 lineto
  28.173912 59.074970 lineto
  37.565216 78.690605 lineto
  46.956520 98.306229 lineto
  56.347824 117.921860 lineto
  65.739128 137.537491 lineto
  75.130432 157.153107 lineto
  84.521736 176.768738 lineto
  93.913040 196.384369 lineto
  103.304344 216.000000 lineto
stroke
0.700000 setlinewidth  [] 0 setdash
 grestore 
 gsave 0.700000 setlinewidth  [] 0 setdash
0.000000 0.000000 moveto   9.391304 17.664202 lineto
  18.782608 36.190071 lineto
  28.173912 53.105000 lineto
  37.565216 68.366585 lineto
  46.956520 78.690605 lineto
  56.347824 99.707344 lineto
  65.739128 78.690605 lineto
  75.130432 84.820488 lineto
  84.521736 91.767677 lineto
  93.913040 108.868492 lineto
  103.304344 108.868492 lineto
  112.695648 132.187759 lineto
  122.086952 119.556488 lineto
  131.478256 147.345291 lineto
  140.869568 147.345291 lineto
  150.260864 147.345291 lineto
  159.652161 165.871170 lineto
  169.043472 147.345291 lineto
  178.434784 147.345291 lineto
  187.826080 165.871170 lineto
  197.217377 189.028503 lineto
  206.608688 165.871170 lineto
  216.000000 189.028503 lineto
stroke
0.700000 setlinewidth  [] 0 setdash
 grestore 
 grestore 
-0.000000 -0.000000 translate
 grestore showpage
%%PageTrailer

%%Trailer
%%Pages: 1
%%EOF
