%!PS-Adobe-3.0
%%Pages: (atend)
%%Creator: jgraph
%%EndComments

%%BeginProlog
%%EndProlog
%%BeginSetup
%%EndSetup

%%Page: 1 1
%%BeginPageSetup
%%EndPageSetup

213.000000 148.000000 translate
1 setlinecap 1 setlinejoin
0.700 setlinewidth
0.00 setgray

/Jrnd { exch cvi exch cvi dup 3 1 roll idiv mul } def
/JDEdict 8 dict def
JDEdict /mtrx matrix put
/JDE {
  JDEdict begin
  /yrad exch def
  /xrad exch def
  /savematrix mtrx currentmatrix def
  xrad yrad scale
  0 0 1 0 360 arc
  savematrix setmatrix
  end
} def
/JSTR {
  gsave 1 eq { gsave 1 setgray fill grestore } if
    exch neg exch neg translate 
    clip                        
    rotate                      
    4 dict begin
      pathbbox  /&top exch def
                /&right exch def
                /&bottom exch def
                &right sub /&width exch def
      newpath
      currentlinewidth mul round dup               
      &bottom exch Jrnd exch &top             
      4 -1 roll currentlinewidth mul setlinewidth  
      { &right exch moveto &width 0 rlineto stroke } for    
    end
  grestore
  newpath
} bind def
 gsave /Times-Roman findfont 9.000000 scalefont setfont
0.000000 324.000000 translate
0.700000 setlinewidth  gsave newpath 0.000000 0.000000 moveto 216.000000 0.000000 lineto stroke
newpath 0.000000 0.000000 moveto 0.000000 -2.000000 lineto stroke
newpath 9.391304 0.000000 moveto 9.391304 -2.000000 lineto stroke
newpath 18.782608 0.000000 moveto 18.782608 -2.000000 lineto stroke
newpath 28.173912 0.000000 moveto 28.173912 -2.000000 lineto stroke
newpath 37.565216 0.000000 moveto 37.565216 -5.000000 lineto stroke
newpath 46.956520 0.000000 moveto 46.956520 -2.000000 lineto stroke
newpath 56.347824 0.000000 moveto 56.347824 -2.000000 lineto stroke
newpath 65.739128 0.000000 moveto 65.739128 -2.000000 lineto stroke
newpath 75.130432 0.000000 moveto 75.130432 -2.000000 lineto stroke
newpath 84.521736 0.000000 moveto 84.521736 -5.000000 lineto stroke
newpath 93.913040 0.000000 moveto 93.913040 -2.000000 lineto stroke
newpath 103.304344 0.000000 moveto 103.304344 -2.000000 lineto stroke
newpath 112.695648 0.000000 moveto 112.695648 -2.000000 lineto stroke
newpath 122.086952 0.000000 moveto 122.086952 -2.000000 lineto stroke
newpath 131.478256 0.000000 moveto 131.478256 -5.000000 lineto stroke
newpath 140.869568 0.000000 moveto 140.869568 -2.000000 lineto stroke
newpath 150.260864 0.000000 moveto 150.260864 -2.000000 lineto stroke
newpath 159.652161 0.000000 moveto 159.652161 -2.000000 lineto stroke
newpath 169.043472 0.000000 moveto 169.043472 -2.000000 lineto stroke
newpath 178.434784 0.000000 moveto 178.434784 -5.000000 lineto stroke
newpath 187.826080 0.000000 moveto 187.826080 -2.000000 lineto stroke
newpath 197.217377 0.000000 moveto 197.217377 -2.000000 lineto stroke
newpath 206.608688 0.000000 moveto 206.608688 -2.000000 lineto stroke
newpath 216.000000 0.000000 moveto 216.000000 -2.000000 lineto stroke
gsave 37.565216 -8.000000 translate 0.000000 rotate
0 -5.400000 translate (5) dup stringwidth pop 2 div neg 0 moveto
show
grestore
gsave 84.521736 -8.000000 translate 0.000000 rotate
0 -5.400000 translate (10) dup stringwidth pop 2 div neg 0 moveto
show
grestore
gsave 131.478256 -8.000000 translate 0.000000 rotate
0 -5.400000 translate (15) dup stringwidth pop 2 div neg 0 moveto
show
grestore
gsave 178.434784 -8.000000 translate 0.000000 rotate
0 -5.400000 translate (20) dup stringwidth pop 2 div neg 0 moveto
show
grestore
/Times-Bold findfont 10.000000 scalefont setfont
gsave 108.000000 -21.400000 translate 0.000000 rotate
0 -6.000000 translate (OMP #threads) dup stringwidth pop 2 div neg 0 moveto
show
grestore
 grestore 
0.700000 setlinewidth  gsave newpath 0.000000 0.000000 moveto 0.000000 216.000000 lineto stroke
newpath 0.000000 0.941178 moveto -2.000000 0.941178 lineto stroke
newpath 0.000000 5.647062 moveto -2.000000 5.647062 lineto stroke
newpath 0.000000 10.352945 moveto -2.000000 10.352945 lineto stroke
newpath 0.000000 15.058828 moveto -2.000000 15.058828 lineto stroke
newpath 0.000000 19.764706 moveto -5.000000 19.764706 lineto stroke
newpath 0.000000 24.470591 moveto -2.000000 24.470591 lineto stroke
newpath 0.000000 29.176474 moveto -2.000000 29.176474 lineto stroke
newpath 0.000000 33.882355 moveto -2.000000 33.882355 lineto stroke
newpath 0.000000 38.588242 moveto -2.000000 38.588242 lineto stroke
newpath 0.000000 43.294125 moveto -2.000000 43.294125 lineto stroke
newpath 0.000000 48.000008 moveto -2.000000 48.000008 lineto stroke
newpath 0.000000 52.705887 moveto -2.000000 52.705887 lineto stroke
newpath 0.000000 57.411777 moveto -2.000000 57.411777 lineto stroke
newpath 0.000000 62.117653 moveto -2.000000 62.117653 lineto stroke
newpath 0.000000 66.823532 moveto -5.000000 66.823532 lineto stroke
newpath 0.000000 71.529411 moveto -2.000000 71.529411 lineto stroke
newpath 0.000000 76.235291 moveto -2.000000 76.235291 lineto stroke
newpath 0.000000 80.941162 moveto -2.000000 80.941162 lineto stroke
newpath 0.000000 85.647041 moveto -2.000000 85.647041 lineto stroke
newpath 0.000000 90.352921 moveto -2.000000 90.352921 lineto stroke
newpath 0.000000 95.058800 moveto -2.000000 95.058800 lineto stroke
newpath 0.000000 99.764679 moveto -2.000000 99.764679 lineto stroke
newpath 0.000000 104.470551 moveto -2.000000 104.470551 lineto stroke
newpath 0.000000 109.176430 moveto -2.000000 109.176430 lineto stroke
newpath 0.000000 113.882355 moveto -5.000000 113.882355 lineto stroke
newpath 0.000000 118.588234 moveto -2.000000 118.588234 lineto stroke
newpath 0.000000 123.294113 moveto -2.000000 123.294113 lineto stroke
newpath 0.000000 127.999985 moveto -2.000000 127.999985 lineto stroke
newpath 0.000000 132.705872 moveto -2.000000 132.705872 lineto stroke
newpath 0.000000 137.411743 moveto -2.000000 137.411743 lineto stroke
newpath 0.000000 142.117615 moveto -2.000000 142.117615 lineto stroke
newpath 0.000000 146.823502 moveto -2.000000 146.823502 lineto stroke
newpath 0.000000 151.529373 moveto -2.000000 151.529373 lineto stroke
newpath 0.000000 156.235260 moveto -2.000000 156.235260 lineto stroke
newpath 0.000000 160.941177 moveto -5.000000 160.941177 lineto stroke
newpath 0.000000 165.647049 moveto -2.000000 165.647049 lineto stroke
newpath 0.000000 170.352936 moveto -2.000000 170.352936 lineto stroke
newpath 0.000000 175.058807 moveto -2.000000 175.058807 lineto stroke
newpath 0.000000 179.764694 moveto -2.000000 179.764694 lineto stroke
newpath 0.000000 184.470566 moveto -2.000000 184.470566 lineto stroke
newpath 0.000000 189.176437 moveto -2.000000 189.176437 lineto stroke
newpath 0.000000 193.882324 moveto -2.000000 193.882324 lineto stroke
newpath 0.000000 198.588196 moveto -2.000000 198.588196 lineto stroke
newpath 0.000000 203.294083 moveto -2.000000 203.294083 lineto stroke
newpath 0.000000 208.000000 moveto -5.000000 208.000000 lineto stroke
newpath 0.000000 212.705872 moveto -2.000000 212.705872 lineto stroke
/Times-Roman findfont 9.000000 scalefont setfont
gsave -8.000000 19.764706 translate 0.000000 rotate
0 -2.700000 translate (1) dup stringwidth pop neg 0 moveto
show
grestore
gsave -8.000000 66.823532 translate 0.000000 rotate
0 -2.700000 translate (2) dup stringwidth pop neg 0 moveto
show
grestore
gsave -8.000000 113.882355 translate 0.000000 rotate
0 -2.700000 translate (3) dup stringwidth pop neg 0 moveto
show
grestore
gsave -8.000000 160.941177 translate 0.000000 rotate
0 -2.700000 translate (4) dup stringwidth pop neg 0 moveto
show
grestore
gsave -8.000000 208.000000 translate 0.000000 rotate
0 -2.700000 translate (5) dup stringwidth pop neg 0 moveto
show
grestore
/Times-Bold findfont 10.000000 scalefont setfont
gsave -20.320000 108.000000 translate 90.000000 rotate
0 0.000000 translate (Time ) dup stringwidth pop 2 div neg 0 moveto
show
grestore
 grestore 
/Times-Roman findfont 12.000000 scalefont setfont
gsave 108.000000 -37.400002 translate 0.000000 rotate
0 -7.200000 translate (Average elapsed execution time) dup stringwidth pop 2 div neg 0 moveto
show
grestore
 gsave 
 gsave 0.700000 setlinewidth  [] 0 setdash
0.000000 216.000000 moveto   9.391304 93.647057 lineto
  18.782608 73.882362 lineto
  28.173912 56.941177 lineto
  37.565216 48.470585 lineto
  46.956520 24.000002 lineto
  56.347824 18.352943 lineto
  65.739128 27.294117 lineto
  75.130432 26.823528 lineto
  84.521736 19.764706 lineto
  93.913040 15.058823 lineto
  103.304344 19.294119 lineto
  112.695648 16.000002 lineto
  122.086952 13.647059 lineto
  131.478256 9.882355 lineto
  140.869568 8.941176 lineto
  150.260864 3.294117 lineto
  159.652161 3.294117 lineto
  169.043472 3.294117 lineto
  178.434784 2.352942 lineto
  187.826080 1.882354 lineto
  197.217377 0.000000 lineto
  206.608688 0.941178 lineto
  216.000000 0.000000 lineto
stroke
0.700000 setlinewidth  [] 0 setdash
 grestore 
 grestore 
-0.000000 -324.000000 translate
0.000000 0.000000 translate
0.700000 setlinewidth  gsave newpath 0.000000 0.000000 moveto 216.000000 0.000000 lineto stroke
newpath 0.000000 0.000000 moveto 0.000000 -2.000000 lineto stroke
newpath 9.391304 0.000000 moveto 9.391304 -2.000000 lineto stroke
newpath 18.782608 0.000000 moveto 18.782608 -2.000000 lineto stroke
newpath 28.173912 0.000000 moveto 28.173912 -2.000000 lineto stroke
newpath 37.565216 0.000000 moveto 37.565216 -5.000000 lineto stroke
newpath 46.956520 0.000000 moveto 46.956520 -2.000000 lineto stroke
newpath 56.347824 0.000000 moveto 56.347824 -2.000000 lineto stroke
newpath 65.739128 0.000000 moveto 65.739128 -2.000000 lineto stroke
newpath 75.130432 0.000000 moveto 75.130432 -2.000000 lineto stroke
newpath 84.521736 0.000000 moveto 84.521736 -5.000000 lineto stroke
newpath 93.913040 0.000000 moveto 93.913040 -2.000000 lineto stroke
newpath 103.304344 0.000000 moveto 103.304344 -2.000000 lineto stroke
newpath 112.695648 0.000000 moveto 112.695648 -2.000000 lineto stroke
newpath 122.086952 0.000000 moveto 122.086952 -2.000000 lineto stroke
newpath 131.478256 0.000000 moveto 131.478256 -5.000000 lineto stroke
newpath 140.869568 0.000000 moveto 140.869568 -2.000000 lineto stroke
newpath 150.260864 0.000000 moveto 150.260864 -2.000000 lineto stroke
newpath 159.652161 0.000000 moveto 159.652161 -2.000000 lineto stroke
newpath 169.043472 0.000000 moveto 169.043472 -2.000000 lineto stroke
newpath 178.434784 0.000000 moveto 178.434784 -5.000000 lineto stroke
newpath 187.826080 0.000000 moveto 187.826080 -2.000000 lineto stroke
newpath 197.217377 0.000000 moveto 197.217377 -2.000000 lineto stroke
newpath 206.608688 0.000000 moveto 206.608688 -2.000000 lineto stroke
newpath 216.000000 0.000000 moveto 216.000000 -2.000000 lineto stroke
/Times-Roman findfont 9.000000 scalefont setfont
gsave 37.565216 -8.000000 translate 0.000000 rotate
0 -5.400000 translate (5) dup stringwidth pop 2 div neg 0 moveto
show
grestore
gsave 84.521736 -8.000000 translate 0.000000 rotate
0 -5.400000 translate (10) dup stringwidth pop 2 div neg 0 moveto
show
grestore
gsave 131.478256 -8.000000 translate 0.000000 rotate
0 -5.400000 translate (15) dup stringwidth pop 2 div neg 0 moveto
show
grestore
gsave 178.434784 -8.000000 translate 0.000000 rotate
0 -5.400000 translate (20) dup stringwidth pop 2 div neg 0 moveto
show
grestore
/Times-Bold findfont 10.000000 scalefont setfont
gsave 108.000000 -21.400000 translate 0.000000 rotate
0 -6.000000 translate (OMP #threads) dup stringwidth pop 2 div neg 0 moveto
show
grestore
 grestore 
0.700000 setlinewidth  gsave newpath 0.000000 0.000000 moveto 0.000000 216.000000 lineto stroke
newpath 0.000000 0.000000 moveto -2.000000 0.000000 lineto stroke
newpath 0.000000 19.636364 moveto -5.000000 19.636364 lineto stroke
newpath 0.000000 39.272728 moveto -2.000000 39.272728 lineto stroke
newpath 0.000000 58.909092 moveto -5.000000 58.909092 lineto stroke
newpath 0.000000 78.545456 moveto -2.000000 78.545456 lineto stroke
newpath 0.000000 98.181824 moveto -5.000000 98.181824 lineto stroke
newpath 0.000000 117.818184 moveto -2.000000 117.818184 lineto stroke
newpath 0.000000 137.454544 moveto -5.000000 137.454544 lineto stroke
newpath 0.000000 157.090912 moveto -2.000000 157.090912 lineto stroke
newpath 0.000000 176.727280 moveto -5.000000 176.727280 lineto stroke
newpath 0.000000 196.363647 moveto -2.000000 196.363647 lineto stroke
newpath 0.000000 216.000000 moveto -5.000000 216.000000 lineto stroke
/Times-Roman findfont 9.000000 scalefont setfont
gsave -8.000000 19.636364 translate 0.000000 rotate
0 -2.700000 translate (2) dup stringwidth pop neg 0 moveto
show
grestore
gsave -8.000000 58.909092 translate 0.000000 rotate
0 -2.700000 translate (4) dup stringwidth pop neg 0 moveto
show
grestore
gsave -8.000000 98.181824 translate 0.000000 rotate
0 -2.700000 translate (6) dup stringwidth pop neg 0 moveto
show
grestore
gsave -8.000000 137.454544 translate 0.000000 rotate
0 -2.700000 translate (8) dup stringwidth pop neg 0 moveto
show
grestore
gsave -8.000000 176.727280 translate 0.000000 rotate
0 -2.700000 translate (10) dup stringwidth pop neg 0 moveto
show
grestore
gsave -8.000000 216.000000 translate 0.000000 rotate
0 -2.700000 translate (12) dup stringwidth pop neg 0 moveto
show
grestore
/Times-Bold findfont 10.000000 scalefont setfont
gsave -24.639999 108.000000 translate 90.000000 rotate
0 0.000000 translate (Speed-up) dup stringwidth pop 2 div neg 0 moveto
show
grestore
 grestore 
/Times-Roman findfont 12.000000 scalefont setfont
gsave 108.000000 -37.400002 translate 0.000000 rotate
0 -7.200000 translate (Speed-up wrt sequential time) dup stringwidth pop 2 div neg 0 moveto
show
grestore
 gsave 
 gsave 0.700000 setlinewidth  [4.00000] 0 setdash
0.000000 0.000000 moveto   9.391304 19.636364 lineto
  18.782608 39.272728 lineto
  28.173912 58.909092 lineto
  37.565216 78.545456 lineto
  46.956520 98.181824 lineto
  56.347824 117.818184 lineto
  65.739128 137.454544 lineto
  75.130432 157.090912 lineto
  84.521736 176.727280 lineto
  93.913040 196.363647 lineto
  103.304344 216.000000 lineto
stroke
0.700000 setlinewidth  [] 0 setdash
 grestore 
 gsave 0.700000 setlinewidth  [] 0 setdash
0.000000 0.607702 moveto   9.391304 21.088081 lineto
  18.782608 29.043550 lineto
  28.173912 38.833927 lineto
  37.565216 45.370979 lineto
  46.956520 76.383652 lineto
  56.347824 88.262421 lineto
  65.739128 70.589348 lineto
  75.130432 71.373917 lineto
  84.521736 85.025452 lineto
  93.913040 96.654549 lineto
  103.304344 86.082642 lineto
  112.695648 94.126488 lineto
  122.086952 100.664574 lineto
  131.478256 112.846947 lineto
  140.869568 116.288078 lineto
  150.260864 141.381821 lineto
  159.652161 141.381821 lineto
  169.043472 141.381821 lineto
  178.434784 146.493515 lineto
  187.826080 149.173019 lineto
  197.217377 160.815048 lineto
  206.608688 154.800003 lineto
  216.000000 160.815048 lineto
stroke
0.700000 setlinewidth  [] 0 setdash
 grestore 
 grestore 
-0.000000 -0.000000 translate
 grestore showpage
%%PageTrailer

%%Trailer
%%Pages: 1
%%EOF
