%!PS-Adobe-3.0
%%Pages: (atend)
%%Creator: jgraph
%%EndComments

%%BeginProlog
%%EndProlog
%%BeginSetup
%%EndSetup

%%Page: 1 1
%%BeginPageSetup
%%EndPageSetup

213.000000 148.000000 translate
1 setlinecap 1 setlinejoin
0.700 setlinewidth
0.00 setgray

/Jrnd { exch cvi exch cvi dup 3 1 roll idiv mul } def
/JDEdict 8 dict def
JDEdict /mtrx matrix put
/JDE {
  JDEdict begin
  /yrad exch def
  /xrad exch def
  /savematrix mtrx currentmatrix def
  xrad yrad scale
  0 0 1 0 360 arc
  savematrix setmatrix
  end
} def
/JSTR {
  gsave 1 eq { gsave 1 setgray fill grestore } if
    exch neg exch neg translate 
    clip                        
    rotate                      
    4 dict begin
      pathbbox  /&top exch def
                /&right exch def
                /&bottom exch def
                &right sub /&width exch def
      newpath
      currentlinewidth mul round dup               
      &bottom exch Jrnd exch &top             
      4 -1 roll currentlinewidth mul setlinewidth  
      { &right exch moveto &width 0 rlineto stroke } for    
    end
  grestore
  newpath
} bind def
 gsave /Times-Roman findfont 9.000000 scalefont setfont
0.000000 324.000000 translate
0.700000 setlinewidth  gsave newpath 0.000000 0.000000 moveto 216.000000 0.000000 lineto stroke
newpath 0.000000 0.000000 moveto 0.000000 -2.000000 lineto stroke
newpath 9.391304 0.000000 moveto 9.391304 -2.000000 lineto stroke
newpath 18.782608 0.000000 moveto 18.782608 -2.000000 lineto stroke
newpath 28.173912 0.000000 moveto 28.173912 -2.000000 lineto stroke
newpath 37.565216 0.000000 moveto 37.565216 -5.000000 lineto stroke
newpath 46.956520 0.000000 moveto 46.956520 -2.000000 lineto stroke
newpath 56.347824 0.000000 moveto 56.347824 -2.000000 lineto stroke
newpath 65.739128 0.000000 moveto 65.739128 -2.000000 lineto stroke
newpath 75.130432 0.000000 moveto 75.130432 -2.000000 lineto stroke
newpath 84.521736 0.000000 moveto 84.521736 -5.000000 lineto stroke
newpath 93.913040 0.000000 moveto 93.913040 -2.000000 lineto stroke
newpath 103.304344 0.000000 moveto 103.304344 -2.000000 lineto stroke
newpath 112.695648 0.000000 moveto 112.695648 -2.000000 lineto stroke
newpath 122.086952 0.000000 moveto 122.086952 -2.000000 lineto stroke
newpath 131.478256 0.000000 moveto 131.478256 -5.000000 lineto stroke
newpath 140.869568 0.000000 moveto 140.869568 -2.000000 lineto stroke
newpath 150.260864 0.000000 moveto 150.260864 -2.000000 lineto stroke
newpath 159.652161 0.000000 moveto 159.652161 -2.000000 lineto stroke
newpath 169.043472 0.000000 moveto 169.043472 -2.000000 lineto stroke
newpath 178.434784 0.000000 moveto 178.434784 -5.000000 lineto stroke
newpath 187.826080 0.000000 moveto 187.826080 -2.000000 lineto stroke
newpath 197.217377 0.000000 moveto 197.217377 -2.000000 lineto stroke
newpath 206.608688 0.000000 moveto 206.608688 -2.000000 lineto stroke
newpath 216.000000 0.000000 moveto 216.000000 -2.000000 lineto stroke
gsave 37.565216 -8.000000 translate 0.000000 rotate
0 -5.400000 translate (5) dup stringwidth pop 2 div neg 0 moveto
show
grestore
gsave 84.521736 -8.000000 translate 0.000000 rotate
0 -5.400000 translate (10) dup stringwidth pop 2 div neg 0 moveto
show
grestore
gsave 131.478256 -8.000000 translate 0.000000 rotate
0 -5.400000 translate (15) dup stringwidth pop 2 div neg 0 moveto
show
grestore
gsave 178.434784 -8.000000 translate 0.000000 rotate
0 -5.400000 translate (20) dup stringwidth pop 2 div neg 0 moveto
show
grestore
/Times-Bold findfont 10.000000 scalefont setfont
gsave 108.000000 -21.400000 translate 0.000000 rotate
0 -6.000000 translate (OMP #threads) dup stringwidth pop 2 div neg 0 moveto
show
grestore
 grestore 
0.700000 setlinewidth  gsave newpath 0.000000 0.000000 moveto 0.000000 216.000000 lineto stroke
newpath 0.000000 3.265661 moveto -2.000000 3.265661 lineto stroke
newpath 0.000000 7.930889 moveto -2.000000 7.930889 lineto stroke
newpath 0.000000 12.596111 moveto -5.000000 12.596111 lineto stroke
newpath 0.000000 17.261339 moveto -2.000000 17.261339 lineto stroke
newpath 0.000000 21.926567 moveto -2.000000 21.926567 lineto stroke
newpath 0.000000 26.591795 moveto -2.000000 26.591795 lineto stroke
newpath 0.000000 31.257023 moveto -2.000000 31.257023 lineto stroke
newpath 0.000000 35.922249 moveto -2.000000 35.922249 lineto stroke
newpath 0.000000 40.587479 moveto -2.000000 40.587479 lineto stroke
newpath 0.000000 45.252705 moveto -2.000000 45.252705 lineto stroke
newpath 0.000000 49.917934 moveto -2.000000 49.917934 lineto stroke
newpath 0.000000 54.583160 moveto -2.000000 54.583160 lineto stroke
newpath 0.000000 59.248379 moveto -5.000000 59.248379 lineto stroke
newpath 0.000000 63.913601 moveto -2.000000 63.913601 lineto stroke
newpath 0.000000 68.578827 moveto -2.000000 68.578827 lineto stroke
newpath 0.000000 73.244049 moveto -2.000000 73.244049 lineto stroke
newpath 0.000000 77.909271 moveto -2.000000 77.909271 lineto stroke
newpath 0.000000 82.574493 moveto -2.000000 82.574493 lineto stroke
newpath 0.000000 87.239716 moveto -2.000000 87.239716 lineto stroke
newpath 0.000000 91.904938 moveto -2.000000 91.904938 lineto stroke
newpath 0.000000 96.570160 moveto -2.000000 96.570160 lineto stroke
newpath 0.000000 101.235382 moveto -2.000000 101.235382 lineto stroke
newpath 0.000000 105.900650 moveto -5.000000 105.900650 lineto stroke
newpath 0.000000 110.565872 moveto -2.000000 110.565872 lineto stroke
newpath 0.000000 115.231094 moveto -2.000000 115.231094 lineto stroke
newpath 0.000000 119.896317 moveto -2.000000 119.896317 lineto stroke
newpath 0.000000 124.561539 moveto -2.000000 124.561539 lineto stroke
newpath 0.000000 129.226761 moveto -2.000000 129.226761 lineto stroke
newpath 0.000000 133.891983 moveto -2.000000 133.891983 lineto stroke
newpath 0.000000 138.557205 moveto -2.000000 138.557205 lineto stroke
newpath 0.000000 143.222427 moveto -2.000000 143.222427 lineto stroke
newpath 0.000000 147.887650 moveto -2.000000 147.887650 lineto stroke
newpath 0.000000 152.552917 moveto -5.000000 152.552917 lineto stroke
newpath 0.000000 157.218140 moveto -2.000000 157.218140 lineto stroke
newpath 0.000000 161.883362 moveto -2.000000 161.883362 lineto stroke
newpath 0.000000 166.548584 moveto -2.000000 166.548584 lineto stroke
newpath 0.000000 171.213806 moveto -2.000000 171.213806 lineto stroke
newpath 0.000000 175.879028 moveto -2.000000 175.879028 lineto stroke
newpath 0.000000 180.544250 moveto -2.000000 180.544250 lineto stroke
newpath 0.000000 185.209473 moveto -2.000000 185.209473 lineto stroke
newpath 0.000000 189.874695 moveto -2.000000 189.874695 lineto stroke
newpath 0.000000 194.539917 moveto -2.000000 194.539917 lineto stroke
newpath 0.000000 199.205185 moveto -5.000000 199.205185 lineto stroke
newpath 0.000000 203.870407 moveto -2.000000 203.870407 lineto stroke
newpath 0.000000 208.535629 moveto -2.000000 208.535629 lineto stroke
newpath 0.000000 213.200851 moveto -2.000000 213.200851 lineto stroke
/Times-Roman findfont 9.000000 scalefont setfont
gsave -8.000000 12.596111 translate 0.000000 rotate
0 -2.700000 translate (1) dup stringwidth pop neg 0 moveto
show
grestore
gsave -8.000000 59.248379 translate 0.000000 rotate
0 -2.700000 translate (2) dup stringwidth pop neg 0 moveto
show
grestore
gsave -8.000000 105.900650 translate 0.000000 rotate
0 -2.700000 translate (3) dup stringwidth pop neg 0 moveto
show
grestore
gsave -8.000000 152.552917 translate 0.000000 rotate
0 -2.700000 translate (4) dup stringwidth pop neg 0 moveto
show
grestore
gsave -8.000000 199.205185 translate 0.000000 rotate
0 -2.700000 translate (5) dup stringwidth pop neg 0 moveto
show
grestore
/Times-Bold findfont 10.000000 scalefont setfont
gsave -20.320000 108.000000 translate 90.000000 rotate
0 0.000000 translate (Time ) dup stringwidth pop 2 div neg 0 moveto
show
grestore
 grestore 
/Times-Roman findfont 12.000000 scalefont setfont
gsave 108.000000 -37.400002 translate 0.000000 rotate
0 -7.200000 translate (Average elapsed execution time) dup stringwidth pop 2 div neg 0 moveto
show
grestore
 gsave 
 gsave 0.700000 setlinewidth  [] 0 setdash
0.000000 216.000000 moveto   9.391304 130.626343 lineto
  18.782608 82.107994 lineto
  28.173912 61.580990 lineto
  37.565216 45.719223 lineto
  46.956520 31.723539 lineto
  56.347824 32.190063 lineto
  65.739128 25.658745 lineto
  75.130432 21.926567 lineto
  84.521736 18.194384 lineto
  93.913040 13.995678 lineto
  103.304344 14.462200 lineto
  112.695648 11.663067 lineto
  122.086952 10.263497 lineto
  131.478256 8.397408 lineto
  140.869568 6.997839 lineto
  150.260864 5.598272 lineto
  159.652161 5.131747 lineto
  169.043472 4.665225 lineto
  178.434784 3.265658 lineto
  187.826080 1.399567 lineto
  197.217377 0.466522 lineto
  206.608688 0.000000 lineto
  216.000000 0.466522 lineto
stroke
0.700000 setlinewidth  [] 0 setdash
 grestore 
 grestore 
-0.000000 -324.000000 translate
0.000000 0.000000 translate
0.700000 setlinewidth  gsave newpath 0.000000 0.000000 moveto 216.000000 0.000000 lineto stroke
newpath 0.000000 0.000000 moveto 0.000000 -2.000000 lineto stroke
newpath 9.391304 0.000000 moveto 9.391304 -2.000000 lineto stroke
newpath 18.782608 0.000000 moveto 18.782608 -2.000000 lineto stroke
newpath 28.173912 0.000000 moveto 28.173912 -2.000000 lineto stroke
newpath 37.565216 0.000000 moveto 37.565216 -5.000000 lineto stroke
newpath 46.956520 0.000000 moveto 46.956520 -2.000000 lineto stroke
newpath 56.347824 0.000000 moveto 56.347824 -2.000000 lineto stroke
newpath 65.739128 0.000000 moveto 65.739128 -2.000000 lineto stroke
newpath 75.130432 0.000000 moveto 75.130432 -2.000000 lineto stroke
newpath 84.521736 0.000000 moveto 84.521736 -5.000000 lineto stroke
newpath 93.913040 0.000000 moveto 93.913040 -2.000000 lineto stroke
newpath 103.304344 0.000000 moveto 103.304344 -2.000000 lineto stroke
newpath 112.695648 0.000000 moveto 112.695648 -2.000000 lineto stroke
newpath 122.086952 0.000000 moveto 122.086952 -2.000000 lineto stroke
newpath 131.478256 0.000000 moveto 131.478256 -5.000000 lineto stroke
newpath 140.869568 0.000000 moveto 140.869568 -2.000000 lineto stroke
newpath 150.260864 0.000000 moveto 150.260864 -2.000000 lineto stroke
newpath 159.652161 0.000000 moveto 159.652161 -2.000000 lineto stroke
newpath 169.043472 0.000000 moveto 169.043472 -2.000000 lineto stroke
newpath 178.434784 0.000000 moveto 178.434784 -5.000000 lineto stroke
newpath 187.826080 0.000000 moveto 187.826080 -2.000000 lineto stroke
newpath 197.217377 0.000000 moveto 197.217377 -2.000000 lineto stroke
newpath 206.608688 0.000000 moveto 206.608688 -2.000000 lineto stroke
newpath 216.000000 0.000000 moveto 216.000000 -2.000000 lineto stroke
/Times-Roman findfont 9.000000 scalefont setfont
gsave 37.565216 -8.000000 translate 0.000000 rotate
0 -5.400000 translate (5) dup stringwidth pop 2 div neg 0 moveto
show
grestore
gsave 84.521736 -8.000000 translate 0.000000 rotate
0 -5.400000 translate (10) dup stringwidth pop 2 div neg 0 moveto
show
grestore
gsave 131.478256 -8.000000 translate 0.000000 rotate
0 -5.400000 translate (15) dup stringwidth pop 2 div neg 0 moveto
show
grestore
gsave 178.434784 -8.000000 translate 0.000000 rotate
0 -5.400000 translate (20) dup stringwidth pop 2 div neg 0 moveto
show
grestore
/Times-Bold findfont 10.000000 scalefont setfont
gsave 108.000000 -21.400000 translate 0.000000 rotate
0 -6.000000 translate (OMP #threads) dup stringwidth pop 2 div neg 0 moveto
show
grestore
 grestore 
0.700000 setlinewidth  gsave newpath 0.000000 0.000000 moveto 0.000000 216.000000 lineto stroke
newpath 0.000000 0.073246 moveto -2.000000 0.073246 lineto stroke
newpath 0.000000 19.702950 moveto -5.000000 19.702950 lineto stroke
newpath 0.000000 39.332649 moveto -2.000000 39.332649 lineto stroke
newpath 0.000000 58.962353 moveto -5.000000 58.962353 lineto stroke
newpath 0.000000 78.592056 moveto -2.000000 78.592056 lineto stroke
newpath 0.000000 98.221764 moveto -5.000000 98.221764 lineto stroke
newpath 0.000000 117.851463 moveto -2.000000 117.851463 lineto stroke
newpath 0.000000 137.481171 moveto -5.000000 137.481171 lineto stroke
newpath 0.000000 157.110886 moveto -2.000000 157.110886 lineto stroke
newpath 0.000000 176.740585 moveto -5.000000 176.740585 lineto stroke
newpath 0.000000 196.370285 moveto -2.000000 196.370285 lineto stroke
newpath 0.000000 215.999985 moveto -5.000000 215.999985 lineto stroke
/Times-Roman findfont 9.000000 scalefont setfont
gsave -8.000000 19.702950 translate 0.000000 rotate
0 -2.700000 translate (2) dup stringwidth pop neg 0 moveto
show
grestore
gsave -8.000000 58.962353 translate 0.000000 rotate
0 -2.700000 translate (4) dup stringwidth pop neg 0 moveto
show
grestore
gsave -8.000000 98.221764 translate 0.000000 rotate
0 -2.700000 translate (6) dup stringwidth pop neg 0 moveto
show
grestore
gsave -8.000000 137.481171 translate 0.000000 rotate
0 -2.700000 translate (8) dup stringwidth pop neg 0 moveto
show
grestore
gsave -8.000000 176.740585 translate 0.000000 rotate
0 -2.700000 translate (10) dup stringwidth pop neg 0 moveto
show
grestore
gsave -8.000000 215.999985 translate 0.000000 rotate
0 -2.700000 translate (12) dup stringwidth pop neg 0 moveto
show
grestore
/Times-Bold findfont 10.000000 scalefont setfont
gsave -24.639999 108.000000 translate 90.000000 rotate
0 0.000000 translate (Speed-up) dup stringwidth pop 2 div neg 0 moveto
show
grestore
 grestore 
/Times-Roman findfont 12.000000 scalefont setfont
gsave 108.000000 -37.400002 translate 0.000000 rotate
0 -7.200000 translate (Speed-up wrt sequential time) dup stringwidth pop 2 div neg 0 moveto
show
grestore
 gsave 
 gsave 0.700000 setlinewidth  [4.00000] 0 setdash
0.000000 0.073246 moveto   9.391304 19.702950 lineto
  18.782608 39.332649 lineto
  28.173912 58.962353 lineto
  37.565216 78.592056 lineto
  46.956520 98.221764 lineto
  56.347824 117.851463 lineto
  65.739128 137.481171 lineto
  75.130432 157.110886 lineto
  84.521736 176.740585 lineto
  93.913040 196.370285 lineto
  103.304344 215.999985 lineto
stroke
0.700000 setlinewidth  [] 0 setdash
 grestore 
 gsave 0.700000 setlinewidth  [] 0 setdash
0.000000 0.000000 moveto   9.391304 10.138334 lineto
  18.782608 22.540977 lineto
  28.173912 31.576525 lineto
  37.565216 41.743317 lineto
  46.956520 54.785828 lineto
  56.347824 54.262283 lineto
  65.739128 62.336208 lineto
  75.130432 67.795715 lineto
  84.521736 74.035164 lineto
  93.913040 82.213066 lineto
  103.304344 81.234520 lineto
  112.695648 87.405388 lineto
  122.086952 90.783142 lineto
  131.478256 95.633224 lineto
  140.869568 99.560150 lineto
  150.260864 103.764267 lineto
  159.652161 105.232368 lineto
  169.043472 106.735847 lineto
  178.434784 111.471817 lineto
  187.826080 118.368034 lineto
  197.217377 122.095718 lineto
  206.608688 124.036171 lineto
  216.000000 122.095718 lineto
stroke
0.700000 setlinewidth  [] 0 setdash
 grestore 
 grestore 
-0.000000 -0.000000 translate
 grestore showpage
%%PageTrailer

%%Trailer
%%Pages: 1
%%EOF
