a)
machines 1 1 1 1
./run-hyb.sh pi-hyb 1280000000 1 1
pi is approximately 3.1415926551521789, Error is 0.0000000015623858
Execution time: 19.335273 secs
./run-hyb.sh pi-hyb 1280000000 1 2
pi is approximately 3.1415926551524613, Error is 0.0000000015626682
Execution time: 9.670322 secs
./run-hyb.sh pi-hyb 1280000000 1 4
pi is approximately 3.1415926551522197, Error is 0.0000000015624266
Execution time: 4.842248 secs
./run-hyb.sh pi-hyb 1280000000 1 8
pi is approximately 3.1415926551523636, Error is 0.0000000015625705
Execution time: 4.052745 secs

c)
machines 1 1 1 1
./run-hyb.sh pi-hyb 1280000000 1 1
pi is approximately 3.1415926551521789, Error is 0.0000000015623858
Execution time: 19.335492 secs
./run-hyb.sh pi-hyb 1280000000 2 1
pi is approximately 3.1415926551524613, Error is 0.0000000015626682
Execution time: 9.701760 secs
./run-hyb.sh pi-hyb 1280000000 4 1
pi is approximately 3.1415926551522197, Error is 0.0000000015624266
Execution time: 4.869576 secs
./run-hyb.sh pi-hyb 1280000000 8 1
pi is approximately 3.1415926551523636, Error is 0.0000000015625705
Execution time: 2.448705 secs

d)
machines 8 8 8 8
./run-hyb.sh pi-hyb 1280000000 1 1
pi is approximately 3.1415926551521789, Error is 0.0000000015623858
Execution time: 19.338056 secs
./run-hyb.sh pi-hyb 1280000000 2 1
pi is approximately 3.1415926551524613, Error is 0.0000000015626682
Execution time: 9.676243 secs
./run-hyb.sh pi-hyb 1280000000 4 1
pi is approximately 3.1415926551522197, Error is 0.0000000015624266
Execution time: 4.841077 secs
./run-hyb.sh pi-hyb 1280000000 8 1
pi is approximately 3.1415926551523636, Error is 0.0000000015625705
Execution time: 7.192779 secs

machines 2 2 2 2
./run-hyb.sh pi-hyb 1280000000 1 1
pi is approximately 3.1415926551521789, Error is 0.0000000015623858
Execution time: 19.335612 secs
./run-hyb.sh pi-hyb 1280000000 2 1
pi is approximately 3.1415926551524613, Error is 0.0000000015626682
Execution time: 9.673465 secs
./run-hyb.sh pi-hyb 1280000000 4 1
pi is approximately 3.1415926551522193, Error is 0.0000000015624262
Execution time: 4.869709 secs
./run-hyb.sh pi-hyb 1280000000 8 1
pi is approximately 3.1415926551523636, Error is 0.0000000015625705
Execution time: 2.450680 secs

e)
machines 4 1 1 1
./run-hyb.sh pi-hyb 1280000000 4 1
pi is approximately 3.1415926551522197, Error is 0.0000000015624266
Execution time: 4.842685 secs

machines 1 1 1 1
./run-hyb.sh pi-hyb 1280000000 4 1
pi is approximately 3.1415926551522197, Error is 0.0000000015624266
Execution time: 4.866706 secs

Van a los cores potentes -> resultados similares

machines 1 1 1 1
./run-hyb.sh pi-hyb 1280000000 2 2
pi is approximately 3.1415926551521531, Error is 0.0000000015623600
Execution time: 4.866906 secs

machines 2 1 1 1
 ./run-hyb.sh pi-hyb 1280000000 2 2
pi is approximately 3.1415926551521443, Error is 0.0000000015623511
Execution time: 4.843403 secs

Van a los cores potentes -> resultados similares

machines 1 1 1 1
./run-hyb.sh pi-hyb 1280000000 1 4
pi is approximately 3.1415926551522984, Error is 0.0000000015625052
Execution time: 4.841519 secs

f)

machines 2 2 2 2
./run-hyb.sh pi-hyb 1280000000 8 1
pi is approximately 3.1415926551523636, Error is 0.0000000015625705
Execution time: 2.450779 secs

machines 2 2 2 2
./run-hyb.sh pi-hyb 1280000000 4 2
pi is approximately 3.1415926551523548, Error is 0.0000000015625616
Execution time: 2.456078 secs

machines 1 1 1 1
./run-hyb.sh pi-hyb 1280000000 2 4
pi is approximately 3.1415926551523121, Error is 0.0000000015625190
Execution time: 2.455966 secs

machines 1 1 1 1
./run-hyb.sh pi-hyb 1280000000 1 8
pi is approximately 3.1415926551522917, Error is 0.0000000015624986
Execution time: 3.680326 secs

Mas lento porque utiliza cores caca

g)

machines 4 4 4 4
./run-hyb.sh pi-hyb 1280000000 16 1
pi is approximately 3.1415926551522735, Error is 0.0000000015624804
Execution time: 1.240218 secs

machines 2 2 2 2
./run-hyb.sh pi-hyb 1280000000 8 2
pi is approximately 3.1415926551523059, Error is 0.0000000015625128
Execution time: 1.243200 secs

machines 1 1 1 1
./run-hyb.sh pi-hyb 1280000000 4 4
pi is approximately 3.1415926551522877, Error is 0.0000000015624946
Execution time: 1.243071 secs

machines 1 1 1 1
./run-hyb.sh pi-hyb 1280000000 2 8
pi is approximately 3.1415926551523818, Error is 0.0000000015625887
Execution time: 1.919660 secs

machines 1 1 1 1
./run-hyb.sh pi-hyb 1280000000 1 16
pi is approximately 3.1415926551523334, Error is 0.0000000015625403
Execution time: 3.681580 secs

estos dos ultimos van algo mas lento porque utiliza cores caca

h)

machines 8 8 8 8
./run-hyb.sh pi-hyb 1280000000 32 1
pi is approximately 3.1415926551522961, Error is 0.0000000015625030
Execution time: 1.877130 secs

machines 4 4 4 4
./run-hyb.sh pi-hyb 1280000000 16 2
pi is approximately 3.1415926551522961, Error is 0.0000000015625030
Execution time: 1.048075 secs

16 2 deberia ir siempre mas rapido pero solo a veces tarda ~1.04s

./run-hyb.sh pi-hyb 1280000000 16 2
pi is approximately 3.1415926551522961, Error is 0.0000000015625030
Execution time: 1.280065 secs

machines 2 2 2 2
./run-hyb.sh pi-hyb 1280000000 8 4
pi is approximately 3.1415926551522961, Error is 0.0000000015625030
Execution time: 1.062171 secs

machines 1 1 1 1
./run-hyb.sh pi-hyb 1280000000 4 8
pi is approximately 3.1415926551522961, Error is 0.0000000015625030
Execution time: 1.042100 secs

machines 1 1 1 1
./run-hyb.sh pi-hyb 1280000000 2 16
pi is approximately 3.1415926551522970, Error is 0.0000000015625039
Execution time: 1.850943 secs

machines 1 1 1 1
./run-hyb.sh pi-hyb 1280000000 1 32
pi is approximately 3.1415926551522966, Error is 0.0000000015625035
Execution time: 3.688966 secs

